{
    "compilerOptions": {
        "experimentalDecorators": true,
        "baseUrl": ".",
        "paths": {
            "c/customLookup": [
                "customLookup/customLookup.js"
            ],
            "c/firstLWCProject": [
                "firstLWCProject/firstLWCProject.js"
            ],
            "c/listViewLWC": [
                "listViewLWC/listViewLWC.js"
            ],
            "c/myComponent": [
                "myComponent/myComponent.js"
            ],
            "c/recordList": [
                "recordList/recordList.js"
            ],
            "c/searchComponent": [
                "searchComponent/searchComponent.js"
            ],
            "c/testLWCproject": [
                "testLWCproject/testLWCproject.js"
            ],
            "c/leaflet": [
                "../staticresources/leaflet/leaflet.js"
            ],
            "c/nouislider": [
                "../staticresources/nouislider/nouislider.js"
            ],
            "c/highchartDemo": [
                "highchartDemo/highchartDemo.js"
            ]
        }
    },
    "include": [
        "**/*",
        "../../../../.sfdx/typings/lwc/**/*.d.ts"
    ],
    "typeAcquisition": {
        "include": [
            "jest"
        ]
    }
}
